<svg width="116" height="132" viewBox="0 0 116 132" fill="none" xmlns="http://www.w3.org/2000/svg">
<g id="Group 11">
<circle id="Ellipse 19" cx="2" cy="2" r="2" fill="#D2D2D8"/>
<circle id="Ellipse 27" cx="2" cy="18" r="2" fill="#D2D2D8"/>
<circle id="Ellipse 35" cx="2" cy="34" r="2" fill="#D2D2D8"/>
<circle id="Ellipse 43" cx="2" cy="50" r="2" fill="#D2D2D8"/>
<circle id="Ellipse 51" cx="2" cy="66" r="2" fill="#D2D2D8"/>
<circle id="Ellipse 59" cx="2" cy="82" r="2" fill="#D2D2D8"/>
<circle id="Ellipse 67" cx="2" cy="98" r="2" fill="#D2D2D8"/>
<circle id="Ellipse 75" cx="2" cy="114" r="2" fill="#D2D2D8"/>
<circle id="Ellipse 83" cx="2" cy="130" r="2" fill="#D2D2D8"/>
<circle id="Ellipse 20" cx="18" cy="2" r="2" fill="#D2D2D8"/>
<circle id="Ellipse 28" cx="18" cy="18" r="2" fill="#D2D2D8"/>
<circle id="Ellipse 36" cx="18" cy="34" r="2" fill="#D2D2D8"/>
<circle id="Ellipse 44" cx="18" cy="50" r="2" fill="#D2D2D8"/>
<circle id="Ellipse 52" cx="18" cy="66" r="2" fill="#D2D2D8"/>
<circle id="Ellipse 60" cx="18" cy="82" r="2" fill="#D2D2D8"/>
<circle id="Ellipse 68" cx="18" cy="98" r="2" fill="#D2D2D8"/>
<circle id="Ellipse 76" cx="18" cy="114" r="2" fill="#D2D2D8"/>
<circle id="Ellipse 84" cx="18" cy="130" r="2" fill="#D2D2D8"/>
<circle id="Ellipse 21" cx="34" cy="2" r="2" fill="#D2D2D8"/>
<circle id="Ellipse 29" cx="34" cy="18" r="2" fill="#D2D2D8"/>
<circle id="Ellipse 37" cx="34" cy="34" r="2" fill="#D2D2D8"/>
<circle id="Ellipse 45" cx="34" cy="50" r="2" fill="#D2D2D8"/>
<circle id="Ellipse 53" cx="34" cy="66" r="2" fill="#D2D2D8"/>
<circle id="Ellipse 61" cx="34" cy="82" r="2" fill="#D2D2D8"/>
<circle id="Ellipse 69" cx="34" cy="98" r="2" fill="#D2D2D8"/>
<circle id="Ellipse 77" cx="34" cy="114" r="2" fill="#D2D2D8"/>
<circle id="Ellipse 85" cx="34" cy="130" r="2" fill="#D2D2D8"/>
<circle id="Ellipse 22" cx="50" cy="2" r="2" fill="#D2D2D8"/>
<circle id="Ellipse 30" cx="50" cy="18" r="2" fill="#D2D2D8"/>
<circle id="Ellipse 38" cx="50" cy="34" r="2" fill="#D2D2D8"/>
<circle id="Ellipse 46" cx="50" cy="50" r="2" fill="#D2D2D8"/>
<circle id="Ellipse 54" cx="50" cy="66" r="2" fill="#D2D2D8"/>
<circle id="Ellipse 62" cx="50" cy="82" r="2" fill="#D2D2D8"/>
<circle id="Ellipse 70" cx="50" cy="98" r="2" fill="#D2D2D8"/>
<circle id="Ellipse 78" cx="50" cy="114" r="2" fill="#D2D2D8"/>
<circle id="Ellipse 86" cx="50" cy="130" r="2" fill="#D2D2D8"/>
<circle id="Ellipse 23" cx="66" cy="2" r="2" fill="#D2D2D8"/>
<circle id="Ellipse 31" cx="66" cy="18" r="2" fill="#D2D2D8"/>
<circle id="Ellipse 39" cx="66" cy="34" r="2" fill="#D2D2D8"/>
<circle id="Ellipse 47" cx="66" cy="50" r="2" fill="#D2D2D8"/>
<circle id="Ellipse 55" cx="66" cy="66" r="2" fill="#D2D2D8"/>
<circle id="Ellipse 63" cx="66" cy="82" r="2" fill="#D2D2D8"/>
<circle id="Ellipse 71" cx="66" cy="98" r="2" fill="#D2D2D8"/>
<circle id="Ellipse 79" cx="66" cy="114" r="2" fill="#D2D2D8"/>
<circle id="Ellipse 87" cx="66" cy="130" r="2" fill="#D2D2D8"/>
<circle id="Ellipse 24" cx="82" cy="2" r="2" fill="#D2D2D8"/>
<circle id="Ellipse 32" cx="82" cy="18" r="2" fill="#D2D2D8"/>
<circle id="Ellipse 40" cx="82" cy="34" r="2" fill="#D2D2D8"/>
<circle id="Ellipse 48" cx="82" cy="50" r="2" fill="#D2D2D8"/>
<circle id="Ellipse 56" cx="82" cy="66" r="2" fill="#D2D2D8"/>
<circle id="Ellipse 64" cx="82" cy="82" r="2" fill="#D2D2D8"/>
<circle id="Ellipse 72" cx="82" cy="98" r="2" fill="#D2D2D8"/>
<circle id="Ellipse 80" cx="82" cy="114" r="2" fill="#D2D2D8"/>
<circle id="Ellipse 88" cx="82" cy="130" r="2" fill="#D2D2D8"/>
<circle id="Ellipse 25" cx="98" cy="2" r="2" fill="#D2D2D8"/>
<circle id="Ellipse 33" cx="98" cy="18" r="2" fill="#D2D2D8"/>
<circle id="Ellipse 41" cx="98" cy="34" r="2" fill="#D2D2D8"/>
<circle id="Ellipse 49" cx="98" cy="50" r="2" fill="#D2D2D8"/>
<circle id="Ellipse 57" cx="98" cy="66" r="2" fill="#D2D2D8"/>
<circle id="Ellipse 65" cx="98" cy="82" r="2" fill="#D2D2D8"/>
<circle id="Ellipse 73" cx="98" cy="98" r="2" fill="#D2D2D8"/>
<circle id="Ellipse 81" cx="98" cy="114" r="2" fill="#D2D2D8"/>
<circle id="Ellipse 89" cx="98" cy="130" r="2" fill="#D2D2D8"/>
<circle id="Ellipse 26" cx="114" cy="2" r="2" fill="#D2D2D8"/>
<circle id="Ellipse 34" cx="114" cy="18" r="2" fill="#D2D2D8"/>
<circle id="Ellipse 42" cx="114" cy="34" r="2" fill="#D2D2D8"/>
<circle id="Ellipse 50" cx="114" cy="50" r="2" fill="#D2D2D8"/>
<circle id="Ellipse 58" cx="114" cy="66" r="2" fill="#D2D2D8"/>
<circle id="Ellipse 66" cx="114" cy="82" r="2" fill="#D2D2D8"/>
<circle id="Ellipse 74" cx="114" cy="98" r="2" fill="#D2D2D8"/>
<circle id="Ellipse 82" cx="114" cy="114" r="2" fill="#D2D2D8"/>
<circle id="Ellipse 90" cx="114" cy="130" r="2" fill="#D2D2D8"/>
</g>
</svg>
